Sampling distributions – DAPR1
…
samples is how many samples of size \(n\) you want to take

Before doing anything involving random sampling, it is good practice to set the random seed. This is to ensure reproducibility of the results. Random number generation in R works by specifying a starting seed, and then numbers are generated starting from there.

Set the random seed to any number you wish. Depending on the number, you will get the same results as me or not:

set.seed(1234)

Obtain 10 samples of \(n = 5\) individuals each:

samples <- rep_sample_n(gest, n = 5, samples = 10)
samples

# A tibble: 50 × 3
   sample    id gest_period
    <dbl> <dbl>       <dbl>
 1      1 40784        255.
 2      1 40854        275.
 3      1 41964        281.
 4      1 15241        246.
 5      1 33702        247.
 6      2 35716        267.
 7      2 17487        289.
 8      2 15220        266.
 9      2 19838        238.
10      2  2622        281.
# ℹ 40 more rows
…
