DAPR1 - Random Variables (Continuous)
…
If we were asked to describe what kind of variables IQ1 and IQ2 were, and to comment on the kind of probability distribution it may follow, we could say:

IQ1 and IQ2 represent the IQ scores of each individual within a group of two. These are both continuous variables that could be modeled by a normal distribution.

We could transform the tips2 dataset from wide to long format using the follwing command:

tips2_long <- tips2 %>%
    pivot_longer(IQ1:IQ2, names_to = "ID", values_to = "IQ_Scores")
tips2_long

# A tibble: 198 × 10
    Bill   Tip Credit Guests Day   Server PctTip HadCoffee ID    IQ_Scores
   <dbl> <dbl> <chr>   <dbl> <chr> <chr>   <dbl>     <dbl> <chr>     <dbl>
 1  23.7 10    n           2 f     A        42.2         2 IQ1          93
 2  23.7 10    n           2 f     A        42.2         2 IQ2         100
 3  32.0  5.01 y           2 f     A        15.7         2 IQ1          96
 4  32.0  5.01 y           2 f     A        15.7         2 IQ2          98
 5  17.4  3.61 y           2 f     B        20.8         2 IQ1          94
 6  17.4  3.61 y           2 f     B        20.8         2 IQ2          99
 7  15.4  3    n           2 f     B        19.5         2 IQ1          99
 8  15.4  3    n           2 f     B        19.5         2 IQ2         108
 9  18.6  2.5  n           2 f     A        13.4         2 IQ1         129
10  18.6  2.5  n           2 f     A        13.4         2 IQ2         106
# … with 188 more rows
…
