DAPR1 - Types of relationships
…
# read in the starwars dataset and assign it the name "starwars2"
starwars2 <- read_csv("https://uoepsy.github.io/data/starwars2.csv")

# take the starwars2 dataframe %>%
# mutate it such that there is a new variable called "height_m",
# the values of which are equal to the "height" variable divided by 100.
# then, select only the "height" and "height_m" columns (this is just 
# to make it easier to see without all the other variables)
starwars2 %>%
    mutate(
        height_m = height/100
    ) %>% 
    select(height, height_m)

# A tibble: 75 × 2
   height height_m
    <dbl>    <dbl>
 1    172     1.72
 2    167     1.67
 3     96     0.96
 4    202     2.02
 5    150     1.5 
 6    178     1.78
 7    165     1.65
 8     97     0.97
 9    183     1.83
10    182     1.82
# … with 65 more rows
…
To mean-center in R, we can simply add a new variable using mutate() and subtract the mean IQ from the IQ variable:

# Take the "wechsler" dataframe, and mutate it,
# such that there is a variable called "iq_meancenter" for which
# the entries are equal to the "iq" variable entries minus the 
# mean of the "iq" variable
wechsler %>%
  mutate(
    iq_meancenter = iq - mean(iq)
  )

# A tibble: 120 × 6
   participant    iq   age test1 test2 iq_meancenter
   <chr>       <dbl> <dbl> <dbl> <dbl>         <dbl>
 1 ppt_1          71    27    46    50        -28.3 
 2 ppt_2         103    38    42    29          3.67
 3 ppt_3          74    20    50    77        -25.3 
 4 ppt_4         108    46    50    62          8.67
 5 ppt_5         118    45    60    29         18.7 
 6 ppt_6         129    33    45    45         29.7 
 7 ppt_7         103    49    42    41          3.67
 8 ppt_8         120    27    63    33         20.7 
 9 ppt_9          96    37    53    44         -3.33
10 ppt_10         80    26    53    21        -19.3 
# … with 110 more rows
…
We can achieve this in R either by manually performing the calculation:

# Take the "wechsler" dataframe, and mutate it,
# such that there is a variable called "iq_z" for which
# the entries are equal to the "iq" variable entries minus the mean of the "iq"
# variable, divided by the standard deviation of the "iq" variable.  
wechsler %>% 
  mutate(
    iq_z = (iq - mean(iq)) / sd(iq)
  )

# A tibble: 120 × 6
   participant    iq   age test1 test2   iq_z
   <chr>       <dbl> <dbl> <dbl> <dbl>  <dbl>
 1 ppt_1          71    27    46    50 -1.84 
 2 ppt_2         103    38    42    29  0.238
 3 ppt_3          74    20    50    77 -1.64 
 4 ppt_4         108    46    50    62  0.562
 5 ppt_5         118    45    60    29  1.21 
 6 ppt_6         129    33    45    45  1.92 
 7 ppt_7         103    49    42    41  0.238
 8 ppt_8         120    27    63    33  1.34 
 9 ppt_9          96    37    53    44 -0.216
10 ppt_10         80    26    53    21 -1.25 
# … with 110 more rows

Or we can use the scale() function:

# Take the "wechsler" dataframe, and mutate it,
# such that there is a variable called "iq_std" for which
# the entries are equal to the scaled values of the "iq" variable.  
wechsler %>%
  mutate(
    iq_std = scale(iq)
  )

# A tibble: 120 × 6
   participant    iq   age test1 test2 iq_std[,1]
   <chr>       <dbl> <dbl> <dbl> <dbl>      <dbl>
 1 ppt_1          71    27    46    50     -1.84 
 2 ppt_2         103    38    42    29      0.238
 3 ppt_3          74    20    50    77     -1.64 
 4 ppt_4         108    46    50    62      0.562
 5 ppt_5         118    45    60    29      1.21 
 6 ppt_6         129    33    45    45      1.92 
 7 ppt_7         103    49    42    41      0.238
 8 ppt_8         120    27    63    33      1.34 
 9 ppt_9          96    37    53    44     -0.216
10 ppt_10         80    26    53    21     -1.25 
# … with 110 more rows

We can also use the scale() function to mean-center a variable, by setting scale(variable, center = TRUE, scale = FALSE):

# create two new variables in the "wechsler" dataframe, one which is 
# mean centered iq, and one which is standardised iq:
wechsler %>%
  mutate(
    iq_mc = scale(iq, center = TRUE, scale = FALSE),
    iq_std = scale(iq, center = TRUE, scale = TRUE) # these are the default settings
  )

# A tibble: 120 × 7
   participant    iq   age test1 test2 iq_mc[,1] iq_std[,1]
   <chr>       <dbl> <dbl> <dbl> <dbl>     <dbl>      <dbl>
 1 ppt_1          71    27    46    50    -28.3      -1.84 
 2 ppt_2         103    38    42    29      3.67      0.238
 3 ppt_3          74    20    50    77    -25.3      -1.64 
 4 ppt_4         108    46    50    62      8.67      0.562
 5 ppt_5         118    45    60    29     18.7       1.21 
 6 ppt_6         129    33    45    45     29.7       1.92 
 7 ppt_7         103    49    42    41      3.67      0.238
 8 ppt_8         120    27    63    33     20.7       1.34 
 9 ppt_9          96    37    53    44     -3.33     -0.216
10 ppt_10         80    26    53    21    -19.3      -1.25 
# … with 110 more rows
…
