Research Design & Data
…
strength
Strength = quality of password where 10 is highest, 1 is lowest

strength_cat
Strength category (weak, medium, strong)

Useful functions: the read_csv() from the tidyverse package or, alternatively, the read.csv() function from base R.

The data file is a CSV file (see the .csv in the file name extension). As such, you may wish to consider the tidyverse function read_csv()to read the data into R:

library(tidyverse)
pwords <- read_csv("https://uoepsy.github.io/data/passworddata.csv")
pwords

# A tibble: 500 × 6
    rank password type                cracked strength strength_cat
   <dbl> <chr>    <chr>                 <dbl>    <dbl> <chr>       
 1     1 password password-related       6.91        8 medium      
 2     2 123456   simple-alphanumeric   18.5         4 weak        
 3     3 12345678 simple-alphanumeric    1.29        4 weak        
 4     4 1234     simple-alphanumeric   11.1         4 weak        
 5     5 qwerty   simple-alphanumeric    3.72        8 medium      
 6     6 12345    simple-alphanumeric    1.85        4 weak        
 7     7 dragon   animal                 3.72        8 medium      
 8     8 baseball sport                  6.91        4 weak        
 9     9 football sport                  6.91        7 medium      
10    10 letmein  password-related       3.19        8 medium      
# … with 490 more rows
…
