Chapter 3 Handling numeric data | Data Analysis for Psychology in R 1
…
The mode of numeric variables is not frequently used. Unlike categorical variables where there are a distinct set of possible values which the data can take, for numeric variables, data can take a many more (or infinitely many) different values. Finding the “most common” is sometimes not possible.

The most frequent value (the mode) of the iq variable is 97:

# take the "wechsler" dataframe %>%
# count() the values in the "iq" variable (creates an "n" column), and
# from there, arrange() the data so that the "n" column is descending - desc()
wechsler %>%
    count(iq) %>%
    arrange(desc(n))

## # A tibble: 53 x 2
##       iq     n
##    <dbl> <int>
##  1    97     7
##  2   108     6
##  3    92     5
##  4   103     5
##  5   105     5
##  6   110     5
##  7    85     4
##  8    99     4
##  9   107     4
## 10   113     4
## # … with 43 more rows
…
Solution 3

stroopdata <- 
  stroopdata %>%
  mutate(
    stroop_effect = mismatching - matching
  )

# and print it out:
stroopdata

## # A tibble: 131 x 7
##       id   age practice matching mismatching height stroop_effect
##    <dbl> <dbl> <chr>       <dbl>       <dbl>  <dbl>         <dbl>
##  1     1    41 yes         22.3         22.4    162          0.1 
##  2     2    24 yes         22.3         24.6    168          2.3 
##  3     3    40 yes         15.4         19.1    166          3.69
##  4     4    46 yes          9.9         20.5    165         10.6 
##  5     5    36 yes         14.2         21.8    160          7.68
##  6     6    29 yes         19.9         23.5    154          3.60
##  7     7    45 no          10.2         22.6    179         12.3 
##  8     8    44 no          16.2         25.1    162          8.89
##  9     9    47 yes          9.73        11.6    148          1.91
## 10    10    59 no           7.68        17.1    153          9.38
## # … with 121 more rows
…
