Chapter 2 Handling categorical data | Data Analysis for Psychology in R 1
…
For variables with a discrete number of response options, we can easily measure “how often” values occur in terms of their frequency.

Frequency distribution

A frequency distribution is an overview of all distinct values in some variable and the number of times they occur.

Supposing that we have surveyed the people working in a psychology department and asked them what sub-discipline of psychological research they most strongly identify as working within (If you would like to work along with the reading, the data is available at https://uoepsy.github.io/data/dapr1/psych_survey.csv).

First, we read our data in to R and store it in an object called “psych_disciplines”:

psych_disciplines <- read_csv("https://uoepsy.github.io/data/dapr1/psych_survey.csv")
psych_disciplines

## # A tibble: 74 x 2
##    participant   area                  
##    <chr>         <chr>                 
##  1 respondent_1  Differential          
##  2 respondent_2  Social                
##  3 respondent_3  Differential          
##  4 respondent_4  Social                
##  5 respondent_5  Differential          
##  6 respondent_6  Differential          
##  7 respondent_7  Language              
##  8 respondent_8  Language              
##  9 respondent_9  Cognitive Neuroscience
## 10 respondent_10 Language              
## # … with 64 more rows
…
set.seed(3853)
psych_disciplines %>%
    mutate(
        happiness = sample(1:5, size = n(), replace=TRUE, prob = c(.1,.2,.3,.3,.1)),
        job_sat = sample(1:5, size = n(), replace=TRUE, prob = c(.1,.1,.1,.3,.4))
    ) %>% select(-area) -> psych_survey
#write.csv(psych_disciplines2,"data/psych_survey2.csv",row.names=FALSE)

Let’s suppose that as well as collecting information on the sub-discipline of psychology they identified with, we also asked our respondents to rate their level of happiness from 1 to 5, as well as their job satisfaction from 1 to 5.

psych_survey <- read_csv("https://uoepsy.github.io/data/dapr1/psych_survey2.csv")
psych_survey

## # A tibble: 74 x 3
##    participant   happiness job_sat
##    <chr>             <dbl>   <dbl>
##  1 respondent_1          3       3
##  2 respondent_2          3       4
##  3 respondent_3          2       5
##  4 respondent_4          4       5
##  5 respondent_5          3       5
##  6 respondent_6          4       4
##  7 respondent_7          4       2
##  8 respondent_8          5       5
##  9 respondent_9          1       5
## 10 respondent_10         3       4
## # … with 64 more rows
…
