Confidence Intervals & Bootstrapping
…
Say we wanted to check whether 1 million was a plausible average yearly salary for a NFL player in 2015. There answer is no, it isn’t. We know the actual average salary which is 3.03 millions, and this is different from 1 million.

NA. Population data NOT available (more common)

Now suppose we didn’t know anything from the previous section (Section A).

In most research, the data for the entire population is not available: typically we cannot afford to collect data on the entire population.
As a consequence, we cannot compute the population parameter, which is unknown, and we must rely on random sampling to estimate it. It is good practice to use a sample size as large as we can afford.

Let’s pretend for now that we don’t have the entire NFL population data, and are only able to collect data for 50 players. Fortunately someone else did it for us: they chose 50 players at random and interviewed them to find out their salary. The sample data are:

nfl_sample <- read_csv("https://uoepsy.github.io/data/nflsamp.csv")
nfl_sample

## # A tibble: 50 × 5
##    Player           Position Team      TotalMoney YearlySalary
##    <chr>            <chr>    <chr>          <dbl>        <dbl>
##  1 Kemoko Turay     43DE     Colts          5.22         1.30 
##  2 Michael Deiter   LG       Dolphins       3.81         0.954
##  3 Brandon Marshall LB       Raiders        0.805        0.805
##  4 Josh Doctson     WR       Vikings        0.72         0.72 
##  5 Kendall Fuller   CB       Chiefs         3.12         0.781
##  6 Brandon Bolden   RB       Patriots       3.7          1.85 
##  7 Jessie Bates III S        Bengals        4.95         1.24 
##  8 Aaron Jones      RB       Packers        2.60         0.65 
##  9 Robbie Gould     K        49ers         19            4.75 
## 10 Kyler Murray     QB       Cardinals     35.2          8.79 
## # … with 40 more rows
…
\[
\left[
\bar x - 2.26 \cdot \frac{s}{\sqrt n}
,\  
\bar x + 2.26 \cdot \frac{s}{\sqrt n}
\right]
\]

Example

Consider again the sample of 50 NFL players. We want to report not only an estimate for the mean salary, but also a range of plausible values, indicating the precision of our estimate.

nfl_sample

## # A tibble: 50 × 5
##    Player           Position Team      TotalMoney YearlySalary
##    <chr>            <chr>    <chr>          <dbl>        <dbl>
##  1 Kemoko Turay     43DE     Colts          5.22         1.30 
##  2 Michael Deiter   LG       Dolphins       3.81         0.954
##  3 Brandon Marshall LB       Raiders        0.805        0.805
##  4 Josh Doctson     WR       Vikings        0.72         0.72 
##  5 Kendall Fuller   CB       Chiefs         3.12         0.781
##  6 Brandon Bolden   RB       Patriots       3.7          1.85 
##  7 Jessie Bates III S        Bengals        4.95         1.24 
##  8 Aaron Jones      RB       Packers        2.60         0.65 
##  9 Robbie Gould     K        49ers         19            4.75 
## 10 Kyler Murray     QB       Cardinals     35.2          8.79 
## # … with 40 more rows
…
S = tibble(salary = c(11, 55, 88))
S

## # A tibble: 3 × 1
##   salary
##    <dbl>
## 1     11
## 2     55
## 3     88

P = tibble(salary = rep(c(11, 55, 88), 50))
P

## # A tibble: 150 × 1
##    salary
##     <dbl>
##  1     11
##  2     55
##  3     88
##  4     11
##  5     55
##  6     88
##  7     11
##  8     55
##  9     88
## 10     11
## # … with 140 more rows
…
Collect a sample and use the sample mean \(\bar x\) as the estimate

Obtain many bootstrap samples

Obtain the bootstrap means by computing the mean of each bootstrap sample

The bootstrap SE is the standard deviation of the bootstrap means

Example

Collect a sample and compute the sample mean. We have already done this before:

nfl_sample

## # A tibble: 50 × 5
##    Player           Position Team      TotalMoney YearlySalary
##    <chr>            <chr>    <chr>          <dbl>        <dbl>
##  1 Kemoko Turay     43DE     Colts          5.22         1.30 
##  2 Michael Deiter   LG       Dolphins       3.81         0.954
##  3 Brandon Marshall LB       Raiders        0.805        0.805
##  4 Josh Doctson     WR       Vikings        0.72         0.72 
##  5 Kendall Fuller   CB       Chiefs         3.12         0.781
##  6 Brandon Bolden   RB       Patriots       3.7          1.85 
##  7 Jessie Bates III S        Bengals        4.95         1.24 
##  8 Aaron Jones      RB       Packers        2.60         0.65 
##  9 Robbie Gould     K        49ers         19            4.75 
## 10 Kyler Murray     QB       Cardinals     35.2          8.79 
## # … with 40 more rows

nfl_sample_mean_salary

## [1] 3.51726

Obtain many bootstrap samples and compute the bootstrap means

nfl_boot_samples <- nfl_sample %>%
  rep_sample_n(n = 50, samples = 1000, replace = TRUE)

nfl_boot_samples

## # A tibble: 50,000 × 6
##    sample Player           Position Team     TotalMoney YearlySalary
##     <dbl> <chr>            <chr>    <chr>         <dbl>        <dbl>
##  1      1 Lance Kendricks  TE       Chargers      0.93         0.93 
##  2      1 Brandon Marshall LB       Raiders       0.805        0.805
##  3      1 Christian Jones  43OLB    Lions         6.35         3.18 
##  4      1 Justin Coleman   CB       Lions        36            9    
##  5      1 Russell Okung    LT       Chargers     53           13.2  
##  6      1 Kemoko Turay     43DE     Colts         5.22         1.30 
##  7      1 LeShaun Sims     CB       Titans        2.58         0.645
##  8      1 Markus Golden    34OLB    Giants        3.75         3.75 
##  9      1 Kendall Fuller   CB       Chiefs        3.12         0.781
## 10      1 Ryan Succop      K        Titans       20            4    
## # … with 49,990 more rows

Compute the bootstrap means

nfl_boot_means <- nfl_boot_samples %>%
    group_by(sample) %>%
    summarise(mean_salary = mean(YearlySalary))

nfl_boot_means

## # A tibble: 1,000 × 2
##    sample mean_salary
##     <dbl>       <dbl>
##  1      1        3.47
##  2      2        4.13
##  3      3        2.81
##  4      4        3.24
##  5      5        2.44
##  6      6        4.35
##  7      7        4.14
##  8      8        2.63
##  9      9        4.05
## 10     10        2.65
## # … with 990 more rows
…
