Confidence Intervals
…
Say we wanted to check whether 1 million was a plausible average yearly salary for a NFL player in 2019. The answer is no, it isn’t. We know the actual average salary which is 3.03 million of dollars, and this is different from 1 million.

NA. Population data NOT available (more common)

Now suppose we didn’t know anything from the previous section.

In most research, the data for the entire population is not available as we cannot afford to collect data on the entire population.
As a consequence, we cannot compute the population parameter \(\mu\), which is unknown, and we must rely on random sampling to estimate it. It is good practice to use a sample size as large as we can afford in order to obtain good precision.

Let’s pretend for now that we don’t have the entire NFL population data, and are only able to collect data for 50 players. Fortunately someone else did it for us: they chose 50 players at random and interviewed them to find out their salary. The sample data are:

nfl_sample <- read_csv("https://uoepsy.github.io/data/NFLSample2019.csv")
nfl_sample

## # A tibble: 50 × 5
##    Player          Position Team       TotalMoney YearlySalary
##    <chr>           <chr>    <chr>           <dbl>        <dbl>
##  1 Najee Goode     43OLB    Jaguars         0.805        0.805
##  2 Jack Crawford   43DT     Falcons         9.9          2.48 
##  3 Tra Carson      RB       Lions           1.23         0.615
##  4 Jordan Richards S        Ravens          0.805        0.805
##  5 Desmond Trufant CB       Falcons        68.8         13.8  
##  6 Alex Anzalone   43OLB    Saints          3.47         0.866
##  7 Trey Burton     TE       Bears          32            8    
##  8 Josh Martin     43DE     Saints          0.805        0.805
##  9 Lavonte David   ILB      Buccaneers     50.2         10.0  
## 10 Maliek Collins  43DT     Cowboys         3.55         0.888
## # … with 40 more rows
…
\[
\left[
\bar x - t^* \cdot \frac{s}{\sqrt n}
,\  
\bar x + t^* \cdot \frac{s}{\sqrt n}
\right]
\]

Example

Consider again the sample of 50 NFL players. We want to report not only an estimate for the mean salary, but also a range of plausible values.

nfl_sample

## # A tibble: 50 × 5
##    Player          Position Team       TotalMoney YearlySalary
##    <chr>           <chr>    <chr>           <dbl>        <dbl>
##  1 Najee Goode     43OLB    Jaguars         0.805        0.805
##  2 Jack Crawford   43DT     Falcons         9.9          2.48 
##  3 Tra Carson      RB       Lions           1.23         0.615
##  4 Jordan Richards S        Ravens          0.805        0.805
##  5 Desmond Trufant CB       Falcons        68.8         13.8  
##  6 Alex Anzalone   43OLB    Saints          3.47         0.866
##  7 Trey Burton     TE       Bears          32            8    
##  8 Josh Martin     43DE     Saints          0.805        0.805
##  9 Lavonte David   ILB      Buccaneers     50.2         10.0  
## 10 Maliek Collins  43DT     Cowboys         3.55         0.888
## # … with 40 more rows
…
