Numeric data – DAPR1
…
 The mode of numeric variables is not frequently used. Unlike categorical variables where there are a distinct set of possible values which the data can take, for numeric variables, data can take a many more (or infinitely many) different values. Finding the “most common” is sometimes not possible.

 The most frequent value (the mode) of the iq variable is 97:

# take the "wechsler" dataframe |>
# count() the values in the "iq" variable (creates an "n" column), and
# from there, arrange() the data so that the "n" column is descending - desc()
wechsler |>
    count(iq) |>
    arrange(desc(n))

# A tibble: 53 × 2
      iq     n
   <dbl> <int>
 1    97     7
 2   108     6
 3    92     5
 4   103     5
 5   105     5
 6   110     5
 7    85     4
 8    99     4
 9   107     4
10   113     4
# ℹ 43 more rows
…
